tests/hellosimavr/sim/pipower.vcd
$timescale 10ns $end
$scope module logic $end
$var wire 1 ! PIN_POWER $end
$var wire 1 " PIN_USB $end
$var wire 1 # PIN_EN $end
$var wire 1 $ PIN_SHUTDOWN $end
$var wire 1 % PIN_BOOT $end
$var wire 8 & STATE $end
$upscope $end
$enddefinitions $end
$dumpvars
x!
x"
x#
x$
x%
bxxxxxxxx &
$end
#2900
b00000000 &
#27300
0#
0$
#58000
1!
0"
0%
#80400
1%
#89700
b00000000 &
#118600
b00000000 &
#122300
b00001011 &
#123900
b00001011 &
#152800
b00001011 &
#155200
b00001100 &
#156800
b00001100 &
#185700
b00001100 &
#197900
b00001101 &
#199500
b00001101 &
#228400
b00001101 &
#231800
b00001110 &
#233400
b00001110 &
#262300
b00001110 &
#271700
b00001110 &
#306300
b00001110 &
#315700
b00001110 &
#344600
b00001110 &
#354000
b00001110 &
#382900
b00001110 &
#392300
b00001110 &
#426900
b00001110 &
#436300
b00001110 &
#465200
b00001110 &
#474600
b00001110 &
#509200
b00001110 &
#518600
b00001110 &
#547500
b00001110 &
#556900
b00001110 &
#585800
b00001110 &
#595200
b00001110 &
#629800
b00001110 &
#639200
b00001110 &
#668100
b00001110 &
#677500
b00001110 &
#712100
b00001110 &
#721500
b00001110 &
#750400
b00001110 &
#759800
b00001110 &
#788700
b00001110 &
#798100
b00001110 &
#832700
b00001110 &
#842100
b00001110 &
#871000
b00001110 &
#880400
b00001110 &
#915000
b00001110 &
#924400
b00001110 &
#953300
b00001110 &
#962700
b00001110 &
#991600
b00001110 &
#1001000
b00001110 &
#1035600
b00001110 &
#1045000
b00001110 &
#1073900
b00001110 &
#1083300
b00001110 &
#1117900
b00001110 &
#1127300
b00001110 &
#1158900
b00001110 &
#1168300
b00001110 &
#1197200
b00001110 &
#1206600
b00001110 &
#1241200
b00001110 &
#1250600
b00001110 &
#1279500
b00001110 &
#1288900
b00001110 &
#1323500
b00001110 &
#1332900
b00001110 &
#1361800
b00001110 &
#1371200
b00001110 &
#1400100
b00001110 &
#1409500
b00001110 &
#1444100
b00001110 &
#1453500
b00001110 &
#1482400
b00001110 &
#1491800
b00001110 &
#1520700
b00001110 &
#1535800
b00001110 &
#1564700
b00001110 &
#1574100
b00001110 &
#1603000
b00001110 &
#1612400
b00001110 &
#1647000
b00001110 &
#1656400
b00001110 &
#1685300
b00001110 &
#1694700
b00001110 &
#1723600
b00001110 &
#1738700
b00001110 &
#1767600
b00001110 &
#1777000
b00001110 &
#1805900
b00001110 &
#1815300
b00001110 &
#1849900
b00001110 &
#1859300
b00001110 &
#1888200
b00001110 &
#1897600
b00001110 &
#1926500
b00001110 &
#1941600
b00001110 &
#1970500
b00001110 &
#1979900
b00001110 &
#2008800
b00001110 &
#2018200
b00001110 &
#2052800
b00001110 &
#2062200
b00001110 &
#2091100
b00001110 &
#2100500
b00001110 &
#2129400
b00001110 &
#2144500
b00001110 &
#2176100
b00001110 &
#2185500
b00001110 &
#2214400
b00001110 &
#2223800
b00001110 &
#2258400
b00001110 &
#2267800
b00001110 &
#2296700
b00001110 &
#2306100
b00001110 &
#2335000
b00001110 &
#2350100
b00001110 &
#2379000
b00001110 &
#2388400
b00001110 &
#2417300
b00001110 &
#2426700
b00001110 &
#2461300
b00001110 &
#2470700
b00001110 &
#2499600
b00001110 &
#2509000
b00001110 &
#2537900
b00001110 &
#2553000
b00001110 &
#2581900
b00001110 &
#2591300
b00001110 &
#2620200
b00001110 &
#2629600
b00001110 &
#2664200
b00001110 &
#2673600
b00001110 &
#2702500
b00001110 &
#2711900
b00001110 &
#2740800
b00001110 &
#2750200
b00001110 &
#2784800
b00001110 &
#2794200
b00001110 &
#2823100
b00001110 &
#2832500
b00001110 &
#2867100
b00001110 &
#2876500
b00001110 &
#2905400
b00001110 &
#2914800
b00001110 &
#2943700
b00001110 &
#2953100
b00001110 &
#2987700
b00001110 &
#2997100
b00001110 &
#3026000
b00001110 &
#3035400
b00001110 &
#3070000
b00001110 &
#3079400
b00001110 &
#3108300
b00001110 &
#3117700
b00001110 &
#3146600
b00001110 &
#3156000
b00001110 &
#3193300
b00001110 &
#3202700
b00001110 &
#3231600
b00001110 &
#3241000
b00001110 &
#3275600
b00001110 &
#3285000
b00001110 &
#3313900
b00001110 &
#3323300
b00001110 &
#3352200
b00001110 &
#3361600
b00001110 &
#3396200
b00001110 &
#3405600
b00001110 &
#3434500
b00001110 &
#3443900
b00001110 &
#3478500
b00001110 &
#3487900
b00001110 &
#3516800
b00001110 &
#3526200
b00001110 &
#3555100
b00001110 &
#3564500
b00001110 &
#3599100
b00001110 &
#3608500
b00001110 &
#3637400
b00001110 &
#3646800
b00001110 &
#3681400
b00001110 &
#3690800
b00001110 &
#3719700
b00001110 &
#3729100
b00001110 &
#3758000
b00001110 &
#3767400
b00001110 &
#3802000
b00001110 &
#3811400
b00001110 &
#3840300
b00001110 &
#3849700
b00001110 &
#3884300
b00001110 &
#3893700
b00001110 &
#3922600
b00001110 &
#3932000
b00001110 &
#3960900
b00001110 &
#3970300
b00001110 &
#4004900
b00001110 &
#4014300
b00001110 &
#4043200
b00001110 &
#4052600
b00001110 &
#4081500
b00001110 &
#4096600
b00001110 &
#4125500
b00001110 &
#4134900
b00001110 &
#4163800
b00001110 &
#4173200
b00001110 &
#4210500
b00001110 &
#4219900
b00001110 &
#4248800
b00001110 &
#4258200
b00001110 &
#4292800
b00001110 &
#4302200
b00001110 &
#4331100
b00001110 &
#4340500
b00001110 &
#4369400
b00001110 &
#4378800
b00001110 &
#4413400
b00001110 &
#4422800
b00001110 &
#4451700
b00001110 &
#4461100
b00001110 &
#4490000
b00001110 &
#4505100
b00001110 &
#4534000
b00001110 &
#4543400
b00001110 &
#4572300
b00001110 &
#4581700
b00001110 &
#4616300
b00001110 &
#4625700
b00001110 &
#4654600
b00001110 &
#4664000
b00001110 &
#4692900
b00001110 &
#4708000
b00001110 &
#4736900
b00001110 &
#4746300
b00001110 &
#4775200
b00001110 &
#4784600
b00001110 &
#4819200
b00001110 &
#4828600
b00001110 &
#4857500
b00001110 &
#4866900
b00001110 &
#4895800
b00001110 &
#4910900
b00001110 &
#4939800
b00001110 &
#4949200
b00001110 &
#4978100
b00001110 &
#4987500
b00001110 &
#5022100
b00001110 &
#5031500
b00001110 &
#5060400
b00001110 &
#5069800
b00001110 &
#5098700
b00001110 &
#5113800
b00001110 &
#5142700
b00001110 &
#5152100
b00001110 &
#5181000
b00001110 &
#5190400
b00001110 &
#5225000
b00001110 &
#5234400
b00001110 &
#5266000
b00001110 &
#5275400
b00001110 &
#5304300
b00001110 &
#5319400
b00001110 &
#5348300
b00001110 &
#5357700
b00001110 &
#5386600
b00001110 &
#5396000
b00001110 &
#5430600
b00001110 &
#5440000
b00001110 &
#5468900
b00001110 &
#5478300
b00001110 &
#5507200
b00001110 &
#5522300
b00001110 &
#5551200
b00001110 &
#5560600
b00001110 &
#5589500
b00001110 &
#5598900
b00001110 &
#5633500
b00001110 &
#5642900
b00001110 &
#5671800
b00001110 &
#5681200
b00001110 &
#5710100
b00001110 &
#5719500
b00001110 &
#5754100
b00001110 &
#5763500
b00001110 &
#5792400
b00001110 &
#5801800
b00001110 &
#5836400
b00001110 &
#5845800
b00001110 &
#5874700
b00001110 &
#5884100
b00001110 &
#5913000
b00001110 &
#5922400
b00001110 &
#5957000
b00001110 &
#5966400
b00001110 &
#5995300
b00001110 &
#6004700
b00001110 &
#6039300
b00001110 &
#6048700
b00001110 &
#6077600
b00001110 &
#6087000
b00001110 &
#6115900
b00001110 &
#6125300
b00001110 &
#6159900
b00001110 &
#6169300
b00001110 &
#6198200
b00001110 &
#6207600
b00001110 &
#6242200
b00001110 &
#6251600
b00001110 &
#6283200
b00001110 &
#6292600
b00001110 &
#6321500
b00001110 &
#6330900
b00001110 &
#6365500
b00001110 &
#6374900
b00001110 &
#6403800
b00001110 &
#6413200
b00001110 &
#6447800
b00001110 &
#6457200
b00001110 &
#6486100
b00001110 &
#6495500
b00001110 &
#6524400
b00001110 &
#6533800
b00001110 &
#6568400
b00001110 &
#6577800
b00001110 &
#6606700
b00001110 &
#6616100
b00001110 &
#6650700
b00001110 &
#6660100
b00001110 &
#6689000
b00001110 &
#6698400
b00001110 &
#6727300
b00001110 &
#6736700
b00001110 &
#6771300
b00001110 &
#6780700
b00001110 &
#6809600
b00001110 &
#6819000
b00001110 &
#6853600
b00001110 &
#6863000
b00001110 &
#6891900
b00001110 &
#6901300
b00001110 &
#6930200
b00001110 &
#6939600
b00001110 &
#6974200
b00001110 &
#6983600
b00001110 &
#7012500
b00001110 &
#7021900
b00001110 &
#7050800
b00001110 &
#7065900
b00001110 &
#7094800
b00001110 &
#7104200
b00001110 &
#7133100
b00001110 &
#7142500
b00001110 &
#7177100
b00001110 &
#7186500
b00001110 &
#7215400
b00001110 &
#7224800
b00001110 &
#7253700
b00001110 &
#7268800
b00001110 &
#7300400
b00001110 &
#7309800
b00001110 &
#7338700
b00001110 &
#7348100
b00001110 &
#7382700
b00001110 &
#7392100
b00001110 &
#7421000
b00001110 &
#7430400
b00001110 &
#7459300
b00001110 &
#7474400
b00001110 &
#7503300
b00001110 &
#7512700
b00001110 &
#7541600
b00001110 &
#7551000
b00001110 &
#7585600
b00001110 &
#7595000
b00001110 &
#7623900
b00001110 &
#7633300
b00001110 &
#7662200
b00001110 &
#7677300
b00001110 &
#7706200
b00001110 &
#7715600
b00001110 &
#7744500
b00001110 &
#7753900
b00001110 &
#7788500
b00001110 &
#7797900
b00001110 &
#7826800
b00001110 &
#7836200
b00001110 &
#7865100
b00001110 &
#7880200
b00001110 &
#7909100
b00001110 &
#7918500
b00001110 &
#7947400
b00001110 &
#7956800
b00001110 &
#7991400
b00001110 &
#8000800
b00001110 &
#8029700
b00001110 &
#8039100
b00001110 &
#8068000
b00001110 &
#8083100
b00001110 &
#8112000
b00001110 &
#8121400
b00001110 &
#8150300
b00001110 &
#8159700
b00001110 &
#8194300
b00001110 &
#8203700
b00001110 &
#8232600
b00001110 &
#8242000
b00001110 &
#8270900
b00001110 &
#8286000
b00001110 &
#8317600
b00001110 &
#8327000
b00001110 &
#8355900
b00001110 &
#8365300
b00001110 &
#8399900
b00001110 &
#8409300
b00001110 &
#8438200
b00001110 &
#8447600
b00001110 &
#8476500
b00001110 &
#8491600
b00001110 &
#8520500
b00001110 &
#8529900
b00001110 &
#8558800
b00001110 &
#8568200
b00001110 &
#8602800
b00001110 &
#8612200
b00001110 &
#8641100
b00001110 &
#8650500
b00001110 &
#8679400
b00001110 &
#8688800
b00001110 &
#8723400
b00001110 &
#8732800
b00001110 &
#8761700
b00001110 &
#8771100
b00001110 &
#8805700
b00001110 &
#8815100
b00001110 &
#8844000
b00001110 &
#8853400
b00001110 &
#8882300
b00001110 &
#8891700
b00001110 &
#8926300
b00001110 &
#8935700
b00001110 &
#8964600
b00001110 &
#8974000
b00001110 &
#9008600
b00001110 &
#9018000
b00001110 &
#9046900
b00001110 &
#9056300
b00001110 &
#9085200
b00001110 &
#9094600
b00001110 &
#9129200
b00001110 &
#9138600
b00001110 &
#9167500
b00001110 &
#9176900
b00001110 &
#9211500
b00001110 &
#9220900
b00001110 &
#9249800
b00001110 &
#9259200
b00001110 &
#9288100
b00001110 &
#9297500
b00001110 &
#9334800
b00001110 &
#9344200
b00001110 &
#9373100
b00001110 &
#9382500
b00001110 &
#9417100
b00001110 &
#9426500
b00001110 &
#9455400
b00001110 &
#9464800
b00001110 &
#9493700
b00001110 &
#9503100
b00001110 &
#9537700
b00001110 &
#9547100
b00001110 &
#9576000
b00001110 &
#9585400
b00001110 &
#9620000
b00001110 &
#9629400
b00001110 &
#9658300
b00001110 &
#9667700
b00001110 &
#9696600
b00001110 &
#9706000
b00001110 &
#9740600
b00001110 &
#9750000
b00001110 &
#9778900
b00001110 &
#9788300
b00001110 &
#9822900
b00001110 &
#9832300
b00001110 &
#9861200
b00001110 &
#9870600
b00001110 &
#9899500
b00001110 &
#9908900
b00001110 &
#9943500
b00001110 &
#9952900
b00001110 &
#9981800
b00001110 &
#9991200
b00001110 &
#10020100
b00001110 &
#10035200
b00001110 &
#10064100
b00001110 &
#10073500
b00001110 &
#10102400
b00001110 &
#10111800
b00001110 &
#10146400
b00001110 &
#10155800
b00001110 &
#10184700
b00001110 &
#10194100
b00001110 &
#10223000
b00001110 &
#10238100
b00001110 &
#10267000
b00001110 &
#10276400
b00001110 &
#10305300
b00001110 &
#10314700
b00001110 &
#10352000
b00001110 &
#10361400
b00001110 &
#10390300
b00001110 &
#10399700
b00001110 &
#10414100
1"
#10443500
b00001110 &
#10452100
b00000011 &
#10453700
b00000011 &
#10482500
b00000011 &
#10484100
1#
#10484600
b00000100 &
#10486200
b00000100 &
#10515000
b00000100 &
#10518400
b00000101 &
#10520000
b00000101 &
#10554500
b00000101 &
#10562300
b00000101 &
#10591100
b00000101 &
#10598900
b00000101 &
#10627700
b00000101 &
#10641200
b00000101 &
#10670000
b00000101 &
#10677800
b00000101 &
#10706600
b00000101 &
#10714400
b00000101 &
#10748900
b00000101 &
#10756700
b00000101 &
#10785500
b00000101 &
#10793300
b00000101 &
#10822100
b00000101 &
#10829900
b00000101 &
#10864400
b00000101 &
#10872200
b00000101 &
#10901000
b00000101 &
#10908800
b00000101 &
#10937600
b00000101 &
#10951100
b00000101 &
#10979900
b00000101 &
#10987700
b00000101 &
#11016500
b00000101 &
#11024300
b00000101 &
#11058800
b00000101 &
#11066600
b00000101 &
#11095400
b00000101 &
#11103200
b00000101 &
#11132000
b00000101 &
#11139800
b00000101 &
#11174300
b00000101 &
#11182100
b00000101 &
#11210900
b00000101 &
#11218700
b00000101 &
#11247500
b00000101 &
#11261000
b00000101 &
#11289800
b00000101 &
#11297600
b00000101 &
#11326400
b00000101 &
#11334200
b00000101 &
#11368700
b00000101 &
#11376500
b00000101 &
#11408000
b00000101 &
#11415800
b00000101 &
#11444600
b00000101 &
#11452400
b00000101 &
#11486900
b00000101 &
#11494700
b00000101 &
#11523500
b00000101 &
#11531300
b00000101 &
#11565800
b00000101 &
#11573600
b00000101 &
#11602400
b00000101 &
#11610200
b00000101 &
#11639000
b00000101 &
#11646800
b00000101 &
#11681300
b00000101 &
#11689100
b00000101 &
#11717900
b00000101 &
#11725700
b00000101 &
#11754500
b00000101 &
#11768000
b00000101 &
#11796800
b00000101 &
#11804600
b00000101 &
#11833400
b00000101 &
#11841200
b00000101 &
#11875700
b00000101 &
#11883500
b00000101 &
#11912300
b00000101 &
#11920100
b00000101 &
#11948900
b00000101 &
#11956700
b00000101 &
#11991200
b00000101 &
#11999000
b00000101 &
#12027800
b00000101 &
#12035600
b00000101 &
#12064400
b00000101 &
#12077900
b00000101 &
#12106700
b00000101 &
#12114500
b00000101 &
#12143300
b00000101 &
#12151100
b00000101 &
#12185600
b00000101 &
#12193400
b00000101 &
#12222200
b00000101 &
#12230000
b00000101 &
#12258800
b00000101 &
#12266600
b00000101 &
#12301100
b00000101 &
#12308900
b00000101 &
#12337700
b00000101 &
#12345500
b00000101 &
#12374300
b00000101 &
#12387800
b00000101 &
#12419300
b00000101 &
#12427100
b00000101 &
#12455900
b00000101 &
#12463700
b00000101 &
#12498200
b00000101 &
#12506000
b00000101 &
#12534800
b00000101 &
#12542600
b00000101 &
#12571400
b00000101 &
#12579200
b00000101 &
#12613700
b00000101 &
#12621500
b00000101 &
#12650300
b00000101 &
#12658100
b00000101 &
#12692600
b00000101 &
#12700400
b00000101 &
#12729200
b00000101 &
#12737000
b00000101 &
#12765800
b00000101 &
#12773600
b00000101 &
#12808100
b00000101 &
#12815900
b00000101 &
#12844700
b00000101 &
#12852500
b00000101 &
#12881300
b00000101 &
#12894800
b00000101 &
#12923600
b00000101 &
#12931400
b00000101 &
#12960200
b00000101 &
#12968000
b00000101 &
#13002500
b00000101 &
#13010300
b00000101 &
#13039100
b00000101 &
#13046900
b00000101 &
#13075700
b00000101 &
#13083500
b00000101 &
#13118000
b00000101 &
#13125800
b00000101 &
#13154600
b00000101 &
#13162400
b00000101 &
#13191200
b00000101 &
#13204700
b00000101 &
#13233500
b00000101 &
#13241300
b00000101 &
#13270100
b00000101 &
#13277900
b00000101 &
#13312400
b00000101 &
#13320200
b00000101 &
#13349000
b00000101 &
#13356800
b00000101 &
#13385600
b00000101 &
#13393400
b00000101 &
#13430600
b00000101 &
#13438400
b00000101 &
#13467200
b00000101 &
#13475000
b00000101 &
#13509500
b00000101 &
#13517300
b00000101 &
#13546100
b00000101 &
#13553900
b00000101 &
#13582700
b00000101 &
#13590500
b00000101 &
#13625000
b00000101 &
#13632800
b00000101 &
#13661600
b00000101 &
#13669400
b00000101 &
#13698200
b00000101 &
#13706000
b00000101 &
#13740500
b00000101 &
#13748300
b00000101 &
#13777100
b00000101 &
#13784900
b00000101 &
#13819400
b00000101 &
#13827200
b00000101 &
#13856000
b00000101 &
#13863800
b00000101 &
#13892600
b00000101 &
#13900400
b00000101 &
#13934900
b00000101 &
#13942700
b00000101 &
#13971500
b00000101 &
#13979300
b00000101 &
#14008100
b00000101 &
#14021600
b00000101 &
#14050400
b00000101 &
#14058200
b00000101 &
#14087000
b00000101 &
#14094800
b00000101 &
#14129300
b00000101 &
#14137100
b00000101 &
#14165900
b00000101 &
#14173700
b00000101 &
#14202500
b00000101 &
#14210300
b00000101 &
#14244800
b00000101 &
#14252600
b00000101 &
#14281400
b00000101 &
#14289200
b00000101 &
#14318000
b00000101 &
#14331500
b00000101 &
#14360300
b00000101 &
#14368100
b00000101 &
#14396900
b00000101 &
#14404700
b00000101 &
#14439200
b00000101 &
#14447000
b00000101 &
#14478500
b00000101 &
#14486300
b00000101 &
#14515100
b00000101 &
#14522900
b00000101 &
#14557400
b00000101 &
#14565200
b00000101 &
#14594000
b00000101 &
#14601800
b00000101 &
#14636300
b00000101 &
#14644100
b00000101 &
#14672900
b00000101 &
#14680700
b00000101 &
#14709500
b00000101 &
#14717300
b00000101 &
#14751800
b00000101 &
#14759600
b00000101 &
#14788400
b00000101 &
#14796200
b00000101 &
#14825000
b00000101 &
#14832800
b00000101 &
#14867300
b00000101 &
#14875100
b00000101 &
#14903900
b00000101 &
#14911700
b00000101 &
#14946200
b00000101 &
#14954000
b00000101 &
#14982800
b00000101 &
#14990600
b00000101 &
#15019400
b00000101 &
#15027200
b00000101 &
#15061700
b00000101 &
#15069500
b00000101 &
#15098300
b00000101 &
#15106100
b00000101 &
#15134900
b00000101 &
#15148400
b00000101 &
#15177200
b00000101 &
#15185000
b00000101 &
#15213800
b00000101 &
#15221600
b00000101 &
#15256100
b00000101 &
#15263900
b00000101 &
#15292700
b00000101 &
#15300500
b00000101 &
#15329300
b00000101 &
#15337100
b00000101 &
#15371600
b00000101 &
#15379400
b00000101 &
#15408200
b00000101 &
#15416000
b00000101 &
#15444800
b00000101 &
#15458300
b00000101 &
#15489800
b00000101 &
#15497600
b00000101 &
#15526400
b00000101 &
#15534200
b00000101 &
#15568700
b00000101 &
#15576500
b00000101 &
#15605300
b00000101 &
#15613100
b00000101 &
#15641900
b00000101 &
#15649700
b00000101 &
#15684200
b00000101 &
#15692000
b00000101 &
#15720800
b00000101 &
#15728600
b00000101 &
#15763100
b00000101 &
#15770900
b00000101 &
#15799700
b00000101 &
#15807500
b00000101 &
#15836300
b00000101 &
#15844100
b00000101 &
#15878600
b00000101 &
#15886400
b00000101 &
#15915200
b00000101 &
#15923000
b00000101 &
#15951800
b00000101 &
#15959600
b00000101 &
#15994100
b00000101 &
#16001900
b00000101 &
#16030700
b00000101 &
#16038500
b00000101 &
#16073000
b00000101 &
#16080800
b00000101 &
#16109600
b00000101 &
#16117400
b00000101 &
#16146200
b00000101 &
#16154000
b00000101 &
#16188500
b00000101 &
#16196300
b00000101 &
#16225100
b00000101 &
#16232900
b00000101 &
#16261700
b00000101 &
#16275200
b00000101 &
#16304000
b00000101 &
#16311800
b00000101 &
#16340600
b00000101 &
#16348400
b00000101 &
#16382900
b00000101 &
#16390700
b00000101 &
#16419500
b00000101 &
#16427300
b00000101 &
#16456100
b00000101 &
#16463900
b00000101 &
#16501100
b00000101 &
#16508900
b00000101 &
#16537700
b00000101 &
#16545500
b00000101 &
#16574300
b00000101 &
#16587800
b00000101 &
#16616600
b00000101 &
#16624400
b00000101 &
#16653200
b00000101 &
#16661000
b00000101 &
#16695500
b00000101 &
#16703300
b00000101 &
#16732100
b00000101 &
#16739900
b00000101 &
#16768700
b00000101 &
#16776500
b00000101 &
#16811000
b00000101 &
#16818800
b00000101 &
#16847600
b00000101 &
#16855400
b00000101 &
#16889900
b00000101 &
#16897700
b00000101 &
#16926500
b00000101 &
#16934300
b00000101 &
#16963100
b00000101 &
#16970900
b00000101 &
#17005400
b00000101 &
#17013200
b00000101 &
#17042000
b00000101 &
#17049800
b00000101 &
#17078600
b00000101 &
#17092100
b00000101 &
#17120900
b00000101 &
#17128700
b00000101 &
#17157500
b00000101 &
#17165300
b00000101 &
#17199800
b00000101 &
#17207600
b00000101 &
#17236400
b00000101 &
#17244200
b00000101 &
#17273000
b00000101 &
#17280800
b00000101 &
#17315300
b00000101 &
#17323100
b00000101 &
#17351900
b00000101 &
#17359700
b00000101 &
#17388500
b00000101 &
#17402000
b00000101 &
#17430800
b00000101 &
#17438600
b00000101 &
#17467400
b00000101 &
#17475200
b00000101 &
#17509700
b00000101 &
#17517500
b00000101 &
#17549000
b00000101 &
#17556800
b00000101 &
#17585600
b00000101 &
#17593400
b00000101 &
#17627900
b00000101 &
#17635700
b00000101 &
#17664500
b00000101 &
#17672300
b00000101 &
#17706800
b00000101 &
#17714600
b00000101 &
#17743400
b00000101 &
#17751200
b00000101 &
#17780000
b00000101 &
#17787800
b00000101 &
#17822300
b00000101 &
#17830100
b00000101 &
#17858900
b00000101 &
#17866700
b00000101 &
#17895500
b00000101 &
#17903300
b00000101 &
#17937800
b00000101 &
#17945600
b00000101 &
#17974400
b00000101 &
#17982200
b00000101 &
#18016700
b00000101 &
#18024500
b00000101 &
#18053300
b00000101 &
#18061100
b00000101 &
#18089900
b00000101 &
#18097700
b00000101 &
#18132200
b00000101 &
#18140000
b00000101 &
#18168800
b00000101 &
#18176600
b00000101 &
#18205400
b00000101 &
#18218900
b00000101 &
#18247700
b00000101 &
#18255500
b00000101 &
#18284300
b00000101 &
#18292100
b00000101 &
#18326600
b00000101 &
#18334400
b00000101 &
#18363200
b00000101 &
#18371000
b00000101 &
#18399800
b00000101 &
#18407600
b00000101 &
#18442100
b00000101 &
#18449900
b00000101 &
#18478700
b00000101 &
#18486500
b00000101 &
#18515300
b00000101 &
#18528800
b00000101 &
#18560300
b00000101 &
#18568100
b00000101 &
#18596900
b00000101 &
#18604700
b00000101 &
#18639200
b00000101 &
#18647000
b00000101 &
#18675800
b00000101 &
#18683600
b00000101 &
#18712400
b00000101 &
#18720200
b00000101 &
#18754700
b00000101 &
#18762500
b00000101 &
#18791300
b00000101 &
#18799100
b00000101 &
#18833600
b00000101 &
#18841400
b00000101 &
#18870200
b00000101 &
#18878000
b00000101 &
#18906800
b00000101 &
#18914600
b00000101 &
#18949100
b00000101 &
#18956900
b00000101 &
#18985700
b00000101 &
#18993500
b00000101 &
#19022300
b00000101 &
#19030100
b00000101 &
#19064600
b00000101 &
#19072400
b00000101 &
#19101200
b00000101 &
#19109000
b00000101 &
#19143500
b00000101 &
#19151300
b00000101 &
#19180100
b00000101 &
#19187900
b00000101 &
#19216700
b00000101 &
#19224500
b00000101 &
#19259000
b00000101 &
#19266800
b00000101 &
#19295600
b00000101 &
#19303400
b00000101 &
#19332200
b00000101 &
#19345700
b00000101 &
#19374500
b00000101 &
#19382300
b00000101 &
#19411100
b00000101 &
#19418900
b00000101 &
#19453400
b00000101 &
#19461200
b00000101 &
#19490000
b00000101 &
#19497800
b00000101 &
#19526600
b00000101 &
#19534400
b00000101 &
#19571600
b00000101 &
#19579400
b00000101 &
#19608200
b00000101 &
#19616000
b00000101 &
#19644800
b00000101 &
#19658300
b00000101 &
#19687100
b00000101 &
#19694900
b00000101 &
#19723700
b00000101 &
#19731500
b00000101 &
#19766000
b00000101 &
#19773800
b00000101 &
#19802600
b00000101 &
#19810400
b00000101 &
#19839200
b00000101 &
#19847000
b00000101 &
#19881500
b00000101 &
#19889300
b00000101 &
#19918100
b00000101 &
#19925900
b00000101 &
#19960400
b00000101 &
#19968200
b00000101 &
#19997000
b00000101 &
#20004800
b00000101 &
#20033600
b00000101 &
#20041400
b00000101 &
#20075900
b00000101 &
#20083700
b00000101 &
#20112500
b00000101 &
#20120300
b00000101 &
#20149100
b00000101 &
#20156900
b00000101 &
#20191400
b00000101 &
#20199200
b00000101 &
#20228000
b00000101 &
#20235800
b00000101 &
#20270300
b00000101 &
#20278100
b00000101 &
#20306900
b00000101 &
#20314700
b00000101 &
#20343500
b00000101 &
#20351300
b00000101 &
#20385800
b00000101 &
#20393600
b00000101 &
#20422400
b00000101 &
#20430200
b00000101 &
#20459000
b00000101 &
#20472500
b00000101 &
#20501300
b00000101 &
#20509100
b00000101 &
#20537900
b00000101 &
#20545700
b00000101 &
#20580200
b00000101 &
#20588000
b00000101 &
#20619500
b00000101 &
#20627300
b00000101 &
#20656100
b00000101 &
#20663900
b00000101 &
#20698400
b00000101 &
#20706200
b00000101 &
#20735000
b00000101 &
#20742800
b00000101 &
#20757200
0%
#20786700
b00000101 &
#20793500
b00000110 &
#20795100
b00000110 &
#20824000
b00000110 &
#20832700
b00000110 &
#20861600
b00000110 &
#20870300
b00000110 &
#20904900
b00000110 &
#20913600
b00000110 &
#20942500
b00000110 &
#20951200
b00000110 &
#20985800
b00000110 &
#20994500
b00000110 &
#21023400
b00000110 &
#21032100
b00000110 &
#21061000
b00000110 &
#21069700
b00000110 &
#21104300
b00000110 &
#21113000
b00000110 &
#21141900
b00000110 &
#21150600
b00000110 &
#21179500
b00000110 &
#21193900
b00000110 &
#21222800
b00000110 &
#21231500
b00000110 &
#21260400
b00000110 &
#21269100
b00000110 &
#21303700
b00000110 &
#21312400
b00000110 &
#21341300
b00000110 &
#21350000
b00000110 &
#21378900
b00000110 &
#21393300
b00000110 &
#21422200
b00000110 &
#21430900
b00000110 &
#21459800
b00000110 &
#21468500
b00000110 &
#21503100
b00000110 &
#21511800
b00000110 &
#21540700
b00000110 &
#21549400
b00000110 &
#21578300
b00000110 &
#21587000
b00000110 &
#21624300
b00000110 &
#21633000
b00000110 &
#21661900
b00000110 &
#21670600
b00000110 &
#21705200
b00000110 &
#21713900
b00000110 &
#21742800
b00000110 &
#21751500
b00000110 &
#21780400
b00000110 &
#21789100
b00000110 &
#21823700
b00000110 &
#21832400
b00000110 &
#21861300
b00000110 &
#21870000
b00000110 &
#21898900
b00000110 &
#21913300
b00000110 &
#21942200
b00000110 &
#21950900
b00000110 &
#21979800
b00000110 &
#21988500
b00000110 &
#22023100
b00000110 &
#22031800
b00000110 &
#22060700
b00000110 &
#22069400
b00000110 &
#22098300
b00000110 &
#22112700
b00000110 &
#22141600
b00000110 &
#22150300
b00000110 &
#22179200
b00000110 &
#22187900
b00000110 &
#22222500
b00000110 &
#22231200
b00000110 &
#22260100
b00000110 &
#22268800
b00000110 &
#22297700
b00000110 &
#22306400
b00000110 &
#22341000
b00000110 &
#22349700
b00000110 &
#22378600
b00000110 &
#22387300
b00000110 &
#22421900
b00000110 &
#22430600
b00000110 &
#22459500
b00000110 &
#22468200
b00000110 &
#22497100
b00000110 &
#22505800
b00000110 &
#22540400
b00000110 &
#22549100
b00000110 &
#22578000
b00000110 &
#22586700
b00000110 &
#22615600
b00000110 &
#22630000
b00000110 &
#22661600
b00000110 &
#22670300
b00000110 &
#22699200
b00000110 &
#22707900
b00000110 &
#22742500
b00000110 &
#22751200
b00000110 &
#22780100
b00000110 &
#22788800
b00000110 &
#22817700
b00000110 &
#22832100
b00000110 &
#22861000
b00000110 &
#22869700
b00000110 &
#22898600
b00000110 &
#22907300
b00000110 &
#22941900
b00000110 &
#22950600
b00000110 &
#22979500
b00000110 &
#22988200
b00000110 &
#23017100
b00000110 &
#23031500
b00000110 &
#23060400
b00000110 &
#23069100
b00000110 &
#23098000
b00000110 &
#23106700
b00000110 &
#23141300
b00000110 &
#23150000
b00000110 &
#23178900
b00000110 &
#23187600
b00000110 &
#23216500
b00000110 &
#23225200
b00000110 &
#23259800
b00000110 &
#23268500
b00000110 &
#23297400
b00000110 &
#23306100
b00000110 &
#23340700
b00000110 &
#23349400
b00000110 &
#23378300
b00000110 &
#23387000
b00000110 &
#23415900
b00000110 &
#23424600
b00000110 &
#23459200
b00000110 &
#23467900
b00000110 &
#23496800
b00000110 &
#23505500
b00000110 &
#23534400
b00000110 &
#23548800
b00000110 &
#23577700
b00000110 &
#23586400
b00000110 &
#23615300
b00000110 &
#23624000
b00000110 &
#23658600
b00000110 &
#23667300
b00000110 &
#23698900
b00000110 &
#23707600
b00000110 &
#23736500
b00000110 &
#23750900
b00000110 &
#23779800
b00000110 &
#23788500
b00000110 &
#23817400
b00000110 &
#23826100
b00000110 &
#23860700
b00000110 &
#23869400
b00000110 &
#23898300
b00000110 &
#23907000
b00000110 &
#23935900
b00000110 &
#23944600
b00000110 &
#23979200
b00000110 &
#23987900
b00000110 &
#24016800
b00000110 &
#24025500
b00000110 &
#24060100
b00000110 &
#24068800
b00000110 &
#24097700
b00000110 &
#24106400
b00000110 &
#24135300
b00000110 &
#24144000
b00000110 &
#24178600
b00000110 &
#24187300
b00000110 &
#24216200
b00000110 &
#24224900
b00000110 &
#24253800
b00000110 &
#24268200
b00000110 &
#24297100
b00000110 &
#24305800
b00000110 &
#24334700
b00000110 &
#24343400
b00000110 &
#24378000
b00000110 &
#24386700
b00000110 &
